<?xml version="1.0" encoding="UTF-8" standalone="no"?>
<!-- Created with Inkscape (http://www.inkscape.org/) -->

<svg
   xmlns:dc="http://purl.org/dc/elements/1.1/"
   xmlns:cc="http://creativecommons.org/ns#"
   xmlns:rdf="http://www.w3.org/1999/02/22-rdf-syntax-ns#"
   xmlns:svg="http://www.w3.org/2000/svg"
   xmlns="http://www.w3.org/2000/svg"
   xmlns:sodipodi="http://sodipodi.sourceforge.net/DTD/sodipodi-0.dtd"
   xmlns:inkscape="http://www.inkscape.org/namespaces/inkscape"
   width="150.99553mm"
   height="105.75597mm"
   viewBox="0 0 150.99553 105.75597"
   version="1.1"
   id="svg8"
   inkscape:version="0.92.4 (unknown)"
   sodipodi:docname="logo.svg">
  <defs
     id="defs2" />
  <sodipodi:namedview
     id="base"
     pagecolor="#ffffff"
     bordercolor="#666666"
     borderopacity="1.0"
     inkscape:pageopacity="0.0"
     inkscape:pageshadow="2"
     inkscape:zoom="0.35"
     inkscape:cx="-218.54813"
     inkscape:cy="157.24628"
     inkscape:document-units="mm"
     inkscape:current-layer="layer1"
     showgrid="false"
     inkscape:snap-bbox="true"
     inkscape:snap-bbox-edge-midpoints="true"
     fit-margin-top="0"
     fit-margin-left="0"
     fit-margin-right="0"
     fit-margin-bottom="0"
     inkscape:window-width="1366"
     inkscape:window-height="713"
     inkscape:window-x="0"
     inkscape:window-y="27"
     inkscape:window-maximized="1" />
  <metadata
     id="metadata5">
    <rdf:RDF>
      <cc:Work
         rdf:about="">
        <dc:format>image/svg+xml</dc:format>
        <dc:type
           rdf:resource="http://purl.org/dc/dcmitype/StillImage" />
        <dc:title></dc:title>
      </cc:Work>
    </rdf:RDF>
  </metadata>
  <g
     inkscape:label="Layer 1"
     inkscape:groupmode="layer"
     id="layer1"
     transform="translate(-32.877765,-84.68211)">
    <g
       aria-label="V"
       style="font-style:normal;font-weight:normal;font-size:63.27626801px;line-height:1.25;font-family:sans-serif;letter-spacing:0px;word-spacing:0px;fill:#249070;fill-opacity:1;stroke:none;stroke-width:1.58190668;stroke-opacity:1"
       id="text12">
      <path
         d="M 50.488836,160.62442 32.877765,114.49577 h 6.519186 l 14.614099,38.83705 14.644995,-38.83705 h 6.48829 L 57.56416,160.62442 Z"
         style="stroke-width:1.58190668;fill:#249070;stroke:none;stroke-opacity:1;fill-opacity:1"
         id="path30" />
    </g>
    <g
       aria-label="B"
       style="font-style:normal;font-weight:normal;font-size:63.27626801px;line-height:1.25;font-family:sans-serif;letter-spacing:0px;word-spacing:0px;fill:#249070;fill-opacity:1;stroke:none;stroke-width:1.58190668;stroke-opacity:1"
       id="text18">
      <path
         d="m 157.39489,138.59513 v 16.90045 h 10.01051 q 5.03615,0 7.44608,-2.07007 2.44083,-2.10097 2.44083,-6.3956 0,-4.32553 -2.44083,-6.3647 -2.40993,-2.07008 -7.44608,-2.07008 z m 0,-18.97052 v 13.90348 h 9.23809 q 4.5727,0 6.79726,-1.69932 2.25545,-1.73021 2.25545,-5.25242 0,-3.49132 -2.25545,-5.22153 -2.22456,-1.73021 -6.79726,-1.73021 z m -6.24111,-5.12884 h 15.94265 q 7.13712,0 10.9992,2.96608 3.86207,2.96607 3.86207,8.43477 0,4.23284 -1.97738,6.73547 -1.97738,2.50262 -5.80856,3.12055 4.60359,0.9887 7.13711,4.14015 2.56442,3.12056 2.56442,7.81684 0,6.17933 -4.20194,9.54706 -4.20194,3.36773 -11.95699,3.36773 h -16.56058 z"
         style="stroke-width:1.58190668;fill:#249070;stroke:none;stroke-opacity:1;fill-opacity:1"
         id="path27" />
    </g>
    <g
       aria-label="$"
       style="font-style:normal;font-weight:normal;font-size:116.63339996px;line-height:1.25;font-family:sans-serif;letter-spacing:0px;word-spacing:0px;fill:#249070;fill-opacity:1;stroke:none;stroke-width:2.9158349;stroke-opacity:1"
       id="text22">
      <path
         d="m 115.45552,190.43808 h -5.69499 l -0.057,-17.14192 q -5.97974,-0.1139 -11.959479,-1.3668 -5.97974,-1.30985 -12.016429,-3.87259 v -10.25099 q 5.80889,3.6448 11.73168,5.52414 5.979738,1.8224 12.301178,1.87935 v -25.96915 q -12.585928,-2.0502 -18.337868,-6.94789 -5.69499,-4.89769 -5.69499,-13.44018 0,-9.28283 6.207539,-14.63612 6.207539,-5.353295 17.825319,-6.150593 V 84.68211 h 5.69499 v 13.212377 q 5.29634,0.2278 10.25098,1.138998 4.95464,0.854249 9.68149,2.391895 v 9.96623 q -4.72685,-2.39189 -9.73844,-3.70174 -4.95464,-1.30985 -10.19403,-1.53765 v 24.31761 q 12.92763,1.99325 19.02127,7.11874 6.09364,5.12549 6.09364,14.00968 0,9.62453 -6.49229,15.20562 -6.43534,5.52414 -18.62262,6.37839 z m -5.69499,-60.99335 v -23.34946 q -6.60619,0.74035 -10.080132,3.7587 -3.473944,3.01834 -3.473944,8.02993 0,4.89769 3.189194,7.63129 3.246142,2.7336 10.364882,3.92954 z m 5.69499,10.93438 v 24.65931 q 7.23264,-0.96815 10.87743,-4.10039 3.70175,-3.13225 3.70175,-8.25774 0,-5.01159 -3.5309,-7.97298 -3.47394,-2.9614 -11.04828,-4.3282 z"
         style="stroke-width:2.9158349;fill:#249070;stroke:none;stroke-opacity:1;fill-opacity:1"
         id="path24" />
    </g>
  </g>
</svg>
