<?xml version="1.0" encoding="UTF-8" standalone="no"?>
<!-- Generator: Adobe Illustrator 15.0.0, SVG Export Plug-In . SVG Version: 6.00 Build 0)  -->

<svg
   xmlns:dc="http://purl.org/dc/elements/1.1/"
   xmlns:cc="http://creativecommons.org/ns#"
   xmlns:rdf="http://www.w3.org/1999/02/22-rdf-syntax-ns#"
   xmlns:svg="http://www.w3.org/2000/svg"
   xmlns="http://www.w3.org/2000/svg"
   xmlns:sodipodi="http://sodipodi.sourceforge.net/DTD/sodipodi-0.dtd"
   xmlns:inkscape="http://www.inkscape.org/namespaces/inkscape"
   version="1.1"
   id="Layer_1"
   x="0px"
   y="0px"
   width="43.771069"
   height="100"
   viewBox="0 0 43.771069 100"
   enable-background="new 0 0 493 453"
   xml:space="preserve"
   sodipodi:docname="icon-london.svg"
   inkscape:version="0.92.3 (2405546, 2018-03-11)"><metadata
   id="metadata36483"><rdf:RDF><cc:Work
       rdf:about=""><dc:format>image/svg+xml</dc:format><dc:type
         rdf:resource="http://purl.org/dc/dcmitype/StillImage" /><dc:title></dc:title></cc:Work></rdf:RDF></metadata><defs
   id="defs36481">
	
	
	
	
	
	
	
	
	
	
	

		
		
		
		
		
		
	</defs><sodipodi:namedview
   pagecolor="#ffffff"
   bordercolor="#666666"
   borderopacity="1"
   objecttolerance="10"
   gridtolerance="10"
   guidetolerance="10"
   inkscape:pageopacity="0"
   inkscape:pageshadow="2"
   inkscape:window-width="1366"
   inkscape:window-height="713"
   id="namedview36479"
   showgrid="false"
   inkscape:snap-global="true"
   inkscape:snap-bbox="true"
   inkscape:bbox-paths="true"
   inkscape:bbox-nodes="true"
   inkscape:snap-bbox-edge-midpoints="true"
   fit-margin-top="0"
   fit-margin-left="0"
   fit-margin-right="0"
   fit-margin-bottom="0"
   showguides="true"
   inkscape:guide-bbox="true"
   inkscape:zoom="2.0838852"
   inkscape:cx="0.48112612"
   inkscape:cy="23.121102"
   inkscape:window-x="0"
   inkscape:window-y="27"
   inkscape:window-maximized="1"
   inkscape:current-layer="Layer_1"
   inkscape:snap-bbox-midpoints="false" />



<g
   id="g36248"
   transform="matrix(1.6706298,0,0,1.6706298,-121.85016,-507.28897)">
			<path
   d="m 74.004,327.464 c 0.846,1.224 1.823,2.205 2.892,3.014 0.629,1.789 1.558,3.575 2.946,4.982 1.766,1.788 4.014,2.695 6.684,2.695 2.695,0 4.881,-0.912 6.496,-2.708 1.341,-1.49 2.116,-3.4 2.565,-5.284 0.908,-0.748 1.744,-1.631 2.483,-2.699 3.004,-4.337 -1.289,-5.032 -1.289,-5.032 0,0 -0.088,-6.012 -1.5,-10.589 -2.042,-6.628 -6.891,-5.718 -7.504,-7.118 -0.575,-1.308 -2.83,-1.55 -3.479,0 -0.591,1.41 -5.129,0.602 -7.506,7.118 -1.493,4.095 -1.501,10.589 -1.501,10.589 0,0 -4.291,0.695 -1.287,5.032 z m 17.279,-9.374 c -0.277,0.087 -0.562,-0.005 -0.752,-0.196 l -1.945,1.897 0.533,3.098 c 0.306,-0.12 0.664,-0.04 0.869,0.24 0.249,0.334 0.176,0.804 -0.156,1.049 -0.332,0.248 -0.806,0.177 -1.049,-0.158 -0.208,-0.28 -0.177,-0.655 0.035,-0.914 l -2.783,-1.463 -2.779,1.463 c 0.205,0.249 0.243,0.608 0.049,0.893 -0.233,0.34 -0.699,0.431 -1.041,0.196 -0.342,-0.231 -0.434,-0.7 -0.199,-1.042 0.202,-0.293 0.57,-0.387 0.889,-0.263 l 0.531,-3.098 -1.948,-1.899 c -0.183,0.187 -0.451,0.277 -0.719,0.206 -0.405,-0.107 -0.64,-0.519 -0.531,-0.918 0.106,-0.401 0.519,-0.639 0.92,-0.532 0.266,0.075 0.454,0.289 0.522,0.543 l 2.729,-0.396 1.369,-2.774 c -0.309,-0.093 -0.543,-0.368 -0.543,-0.708 0,-0.415 0.337,-0.752 0.75,-0.752 0.414,0 0.754,0.338 0.754,0.752 0,0.34 -0.234,0.615 -0.546,0.708 l 1.369,2.774 2.732,0.398 c 0.064,-0.247 0.234,-0.456 0.494,-0.536 0.392,-0.123 0.816,0.099 0.938,0.495 0.125,0.391 -0.098,0.813 -0.492,0.937 z m 3.704,6.193 c 0.001,0.051 0.001,0.107 0.003,0.159 -8.461,6.386 -15.67,1.688 -18.166,-0.401 -0.008,-0.075 -0.01,-0.138 -0.014,-0.208 8.09,5.456 15.169,2.333 18.177,0.45 z m 1.507,-1.073 c -0.121,0.11 -0.241,0.203 -0.364,0.308 0,-0.007 0,-0.014 0,-0.02 0.183,-0.138 0.308,-0.241 0.364,-0.288 z m -17.866,8.384 c 1.928,1.019 4.098,1.555 6.431,1.716 0.114,0.035 0.228,0.056 0.356,0.056 0.208,0 0.414,-0.005 0.62,-0.009 0.208,0.004 0.414,0.009 0.622,0.009 0.128,0 0.243,-0.021 0.354,-0.056 2.591,-0.177 4.975,-0.826 7.053,-2.074 -0.424,1.256 -1.038,2.459 -1.914,3.433 -1.384,1.536 -3.276,2.316 -5.624,2.316 -2.345,0 -4.314,-0.79 -5.852,-2.347 -0.861,-0.874 -1.526,-1.93 -2.046,-3.044 z"
   id="path36244"
   inkscape:connector-curvature="0"
   style="fill:#010101" />
			<path
   d="m 78.958,343.264 c 0.794,1.256 3.752,7.211 5.814,10.395 l 0.874,-6.901 -1.006,-2.279 c 1.707,-1.291 3.654,0 3.654,0 l -0.982,2.186 0.963,6.928 c 2.146,-3.07 4.538,-8.92 5.425,-10.186 2.797,1.209 4.582,3.449 4.582,7.378 0,7.03 -4.526,12.724 -11.551,12.724 -7.028,0 -12.726,-5.693 -12.726,-12.724 0,-4.097 1.944,-6.348 4.953,-7.521 z"
   id="path36246"
   inkscape:connector-curvature="0"
   style="fill:#010101" />
		</g>







</svg>